…
[1] 2
[1] 3
[1] 4
[1] 368
[1] 1
[1] 2
[1] 3
[1] 4
[1] 369
[1] 1
[1] 2
[1] 3
[1] 4
`stat_bin()` using `bins = 30`. Pick better value with `binwidth`.
# A tibble: 4,428 × 9
   sub_n distance option p_best_m p_best_m_l p_best_m_u p_worst_m p_worst_m_l
   <int>    <dbl> <chr>     <dbl>      <dbl>      <dbl>     <dbl>       <dbl>
 1     1        2 t         0.285     0.204       0.367     0.265      0.186 
 2     1        2 c         0.436     0.344       0.524     0.370      0.285 
 3     1        2 d         0.279     0.205       0.368     0.366      0.284 
 4     1        5 t         0.365     0.269       0.459     0.194      0.117 
 5     1        5 c         0.468     0.368       0.563     0.224      0.147 
 6     1        5 d         0.167     0.0959      0.240     0.582      0.486 
 7     1        9 t         0.379     0.281       0.482     0.181      0.100 
 8     1        9 c         0.476     0.376       0.584     0.208      0.124 
 9     1        9 d         0.145     0.0684      0.217     0.612      0.508 
10     1       14 t         0.436     0.338       0.541     0.101      0.0444
# ℹ 4,418 more rows
# ℹ 1 more variable: p_worst_m_u <dbl>
# A tibble: 68,673 × 31
   sub_n bw_cond block_n trial_n effect   set   distance  diag    h1    w1    h2
   <dbl> <chr>     <dbl>   <dbl> <chr>    <chr>    <dbl> <dbl> <dbl> <dbl> <dbl>
 1    22 wb            1       6 attract… h            9     2    90   165   165
 2    22 wb            1       8 attract… h            5     2   161    88    90
 3    22 wb            1       9 attract… w            5     2   165    90    90
 4    22 wb            1      12 attract… h            5     3   195   120   120
 5    22 wb            1      13 attract… h            2     2    90   165   163
 6    22 wb            1      14 attract… w            9     2    86   157    90
 7    22 wb            1      15 attract… h            2     1    60   135   135
 8    22 wb            1      16 attract… h            2     3   120   195   195
 9    22 wb            1      17 attract… h            5     1    60   135   132
10    22 wb            1      18 attract… w            5     3   195   120   120
# ℹ 68,663 more rows
# ℹ 20 more variables: w2 <dbl>, h3 <dbl>, w3 <dbl>, a1 <dbl>, a2 <dbl>,
#   a3 <dbl>, choice_best <dbl>, choice_worst <dbl>, rt_best <dbl>,
#   rt_worst <dbl>, a_max <dbl>, a_min <dbl>, choice_best_correct <dbl>,
#   choice_worst_correct <dbl>, both_correct <dbl>, min <int>, best <chr>,
#   worst <chr>, best_att <chr>, worst_att <chr>
…
