…
[1] 2
[1] 3
[1] 4
[1] 368
[1] 1
[1] 2
[1] 3
[1] 4
[1] 369
[1] 1
[1] 2
[1] 3
[1] 4
`stat_bin()` using `bins = 30`. Pick better value with `binwidth`.
# A tibble: 4,428 × 9
   sub_n distance option p_best_m p_best_m_l p_best_m_u p_worst_m p_worst_m_l
   <int>    <dbl> <chr>     <dbl>      <dbl>      <dbl>     <dbl>       <dbl>
 1     1        2 t         0.286     0.200       0.364     0.264      0.187 
 2     1        2 c         0.436     0.336       0.522     0.370      0.279 
 3     1        2 d         0.278     0.197       0.367     0.365      0.281 
 4     1        5 t         0.365     0.279       0.455     0.195      0.118 
 5     1        5 c         0.469     0.373       0.565     0.222      0.140 
 6     1        5 d         0.166     0.102       0.246     0.584      0.489 
 7     1        9 t         0.380     0.281       0.480     0.181      0.104 
 8     1        9 c         0.475     0.371       0.583     0.209      0.111 
 9     1        9 d         0.145     0.0722      0.219     0.611      0.507 
10     1       14 t         0.437     0.337       0.536     0.101      0.0449
# ℹ 4,418 more rows
# ℹ 1 more variable: p_worst_m_u <dbl>
# A tibble: 68,673 × 31
   sub_n bw_cond block_n trial_n effect   set   distance  diag    h1    w1    h2
   <dbl> <chr>     <dbl>   <dbl> <chr>    <chr>    <dbl> <dbl> <dbl> <dbl> <dbl>
 1    22 wb            1       6 attract… h            9     2    90   165   165
 2    22 wb            1       8 attract… h            5     2   161    88    90
 3    22 wb            1       9 attract… w            5     2   165    90    90
 4    22 wb            1      12 attract… h            5     3   195   120   120
 5    22 wb            1      13 attract… h            2     2    90   165   163
 6    22 wb            1      14 attract… w            9     2    86   157    90
 7    22 wb            1      15 attract… h            2     1    60   135   135
 8    22 wb            1      16 attract… h            2     3   120   195   195
 9    22 wb            1      17 attract… h            5     1    60   135   132
10    22 wb            1      18 attract… w            5     3   195   120   120
# ℹ 68,663 more rows
# ℹ 20 more variables: w2 <dbl>, h3 <dbl>, w3 <dbl>, a1 <dbl>, a2 <dbl>,
#   a3 <dbl>, choice_best <dbl>, choice_worst <dbl>, rt_best <dbl>,
#   rt_worst <dbl>, a_max <dbl>, a_min <dbl>, choice_best_correct <dbl>,
#   choice_worst_correct <dbl>, both_correct <dbl>, min <int>, best <chr>,
#   worst <chr>, best_att <chr>, worst_att <chr>
…
